module gitlab.com/AlexHi/productionService

go 1.18

require (
	github.com/ilyakaznacheev/cleanenv v1.3.0
	github.com/julienschmidt/httprouter v1.3.0
	github.com/rs/cors v1.8.2
	github.com/sirupsen/logrus v1.9.0
	github.com/swaggo/http-swagger v1.3.3
	github.com/swaggo/swag v1.8.5
)

require (
	github.com/BurntSushi/toml v1.1.0 // indirect
	github.com/KyleBanks/depth v1.2.1 // indirect
	github.com/go-openapi/jsonpointer v0.19.5 // indirect
	github.com/go-openapi/jsonreference v0.20.0 // indirect
	github.com/go-openapi/spec v0.20.6 // indirect
	github.com/go-openapi/swag v0.19.15 // indirect
	github.com/joho/godotenv v1.4.0 // indirect
	github.com/josharian/intern v1.0.0 // indirect
	github.com/mailru/easyjson v0.7.6 // indirect
	github.com/swaggo/files v0.0.0-20220610200504-28940afbdbfe // indirect
	golang.org/x/net v0.0.0-20220425223048-2871e0cb64e4 // indirect
	golang.org/x/sys v0.0.0-20220715151400-c0bba94af5f8 // indirect
	golang.org/x/tools v0.1.10 // indirect
	gopkg.in/yaml.v2 v2.4.0 // indirect
	gopkg.in/yaml.v3 v3.0.1 // indirect
	olympos.io/encoding/edn v0.0.0-20201019073823-d3554ca0b0a3 // indirect
)
